16_Others/2_Digital Systems Laboratory/Guides/Guide_2/Parte1/simulation/qsim/Dec2_4EnDemo.msim.vcd
$comment
	File created using the following command:
		vcd file Dec2_4EnDemo.msim.vcd -direction
$end
$date
	Mon Mar 13 23:42:49 2017
$end
$version
	ModelSim Version 10.4b
$end
$timescale
	1ps
$end

$scope module Dec2_4En_vlg_vec_tst $end
$var reg 1 ! enable $end
$var reg 2 " inputs [1:0] $end
$var wire 1 # outputs [3] $end
$var wire 1 $ outputs [2] $end
$var wire 1 % outputs [1] $end
$var wire 1 & outputs [0] $end

$scope module i1 $end
$var wire 1 ' gnd $end
$var wire 1 ( vcc $end
$var wire 1 ) unknown $end
$var tri1 1 * devclrn $end
$var tri1 1 + devpor $end
$var tri1 1 , devoe $end
$var wire 1 - outputs[0]~output_o $end
$var wire 1 . outputs[1]~output_o $end
$var wire 1 / outputs[2]~output_o $end
$var wire 1 0 outputs[3]~output_o $end
$var wire 1 1 enable~input_o $end
$var wire 1 2 inputs[1]~input_o $end
$var wire 1 3 inputs[0]~input_o $end
$var wire 1 4 outputs~0_combout $end
$var wire 1 5 outputs~1_combout $end
$var wire 1 6 outputs~2_combout $end
$var wire 1 7 outputs~3_combout $end
$upscope $end
$upscope $end
$enddefinitions $end
#0
$dumpvars
0!
b0 "
0&
0%
0$
0#
0'
1(
x)
1*
1+
1,
0-
0.
0/
00
01
02
03
04
05
06
07
$end
#25000
b1 "
13
#50000
b11 "
b10 "
03
12
#75000
b11 "
13
#100000
b1 "
b0 "
03
02
#125000
b1 "
13
#150000
b11 "
b10 "
03
12
#175000
b11 "
13
#200000
b1 "
b0 "
03
02
#225000
b1 "
13
#250000
b11 "
b10 "
03
12
#275000
b11 "
13
#300000
1!
b1 "
b0 "
11
03
02
14
1-
1&
#325000
b1 "
13
15
04
0-
1.
1%
0&
#350000
b11 "
b10 "
03
12
16
05
0.
1/
1$
0%
#375000
b11 "
13
17
06
0/
10
1#
0$
#400000
b1 "
b0 "
03
02
07
14
1-
00
0#
1&
#425000
b1 "
13
15
04
0-
1.
1%
0&
#450000
b11 "
b10 "
03
12
16
05
0.
1/
1$
0%
#475000
b11 "
13
17
06
0/
10
1#
0$
#500000
b1 "
b0 "
03
02
07
14
1-
00
0#
1&
#525000
b1 "
13
15
04
0-
1.
1%
0&
#550000
b11 "
b10 "
03
12
16
05
0.
1/
1$
0%
#575000
b11 "
13
17
06
0/
10
1#
0$
#600000
0!
b1 "
b0 "
01
03
02
07
00
0#
#625000
b1 "
13
#650000
b11 "
b10 "
03
12
#675000
b11 "
13
#700000
b1 "
b0 "
03
02
#725000
b1 "
13
#750000
b11 "
b10 "
03
12
#775000
b11 "
13
#800000
b1 "
b0 "
03
02
#825000
b1 "
13
#850000
b11 "
b10 "
03
12
#875000
b11 "
13
#900000
1!
b1 "
b0 "
11
03
02
14
1-
1&
#925000
b1 "
13
15
04
0-
1.
1%
0&
#950000
b11 "
b10 "
03
12
16
05
0.
1/
1$
0%
#975000
b11 "
13
17
06
0/
10
1#
0$
