16_Others/2_Digital Systems Laboratory/Guides/Guide_8/parte2/simulation/qsim/DrinksMachine.msim.vcd
$comment
	File created using the following command:
		vcd file DrinksMachine.msim.vcd -direction
$end
$date
	Tue Apr 18 18:28:37 2017
$end
$version
	ModelSim Version 10.4b
$end
$timescale
	1ps
$end

$scope module DrinksFSM_vlg_vec_tst $end
$var reg 1 ! C $end
$var reg 1 " clock $end
$var reg 1 # reset $end
$var reg 1 $ V $end
$var wire 1 % Abrir $end

$scope module i1 $end
$var wire 1 & gnd $end
$var wire 1 ' vcc $end
$var wire 1 ( unknown $end
$var tri1 1 ) devclrn $end
$var tri1 1 * devpor $end
$var tri1 1 + devoe $end
$var wire 1 , Abrir~output_o $end
$var wire 1 - clock~input_o $end
$var wire 1 . C~input_o $end
$var wire 1 / V~input_o $end
$var wire 1 0 reset~input_o $end
$var wire 1 1 reg_fstate.E3~1_combout $end
$var wire 1 2 reg_fstate.E3~0_combout $end
$var wire 1 3 reg_fstate.E0~0_combout $end
$var wire 1 4 reg_fstate.E0~1_combout $end
$var wire 1 5 fstate.E0~q $end
$var wire 1 6 reg_fstate.E1~0_combout $end
$var wire 1 7 fstate.E1~q $end
$var wire 1 8 reg_fstate.E2~0_combout $end
$var wire 1 9 fstate.E2~q $end
$var wire 1 : reg_fstate.E3~2_combout $end
$var wire 1 ; reg_fstate.E3~3_combout $end
$var wire 1 < fstate.E3~q $end
$var wire 1 = reg_fstate.E4~0_combout $end
$var wire 1 > reg_fstate.E4~1_combout $end
$var wire 1 ? fstate.E4~q $end
$var wire 1 @ reg_fstate.E5~0_combout $end
$var wire 1 A reg_fstate.E5~1_combout $end
$var wire 1 B fstate.E5~q $end
$var wire 1 C Abrir~0_combout $end
$upscope $end
$upscope $end
$enddefinitions $end
#0
$dumpvars
1!
0"
0#
0$
0%
0&
1'
x(
1)
1*
1+
0,
0-
1.
0/
00
01
02
03
14
05
06
07
08
09
1:
1;
0<
0=
0>
0?
1@
0A
0B
0C
$end
#20000
1"
1-
1<
15
0:
1A
0;
#40000
0"
0-
#60000
1"
1-
1B
0<
1C
04
0A
1,
1%
#80000
0"
0-
#100000
1"
1-
0B
05
1:
0C
14
0,
0%
1;
#120000
0"
0-
#140000
1"
1-
1<
15
0:
1A
0;
#160000
0"
0-
#180000
1"
1-
1B
0<
1C
04
0A
1,
1%
#200000
0"
0-
#220000
1"
1-
0B
05
1:
0C
14
0,
0%
1;
#240000
0"
0-
#260000
1"
1-
1<
15
0:
1A
0;
#280000
0"
0-
#300000
1"
1-
1B
0<
1C
04
0A
1,
1%
#320000
0"
0-
#340000
1"
1-
0B
05
1:
0C
14
0,
0%
1;
#360000
0"
0-
#380000
1"
1-
1<
15
0:
1A
0;
#400000
0"
0-
#420000
1"
1-
1B
0<
1C
04
0A
1,
1%
#440000
0"
0-
#460000
1"
1-
0B
05
1:
0C
14
0,
0%
1;
#480000
0"
0-
#500000
1"
1-
1<
15
0:
1A
0;
#520000
0"
0-
#540000
1"
1-
1B
0<
1C
04
0A
1,
1%
#560000
0"
0-
#580000
1"
1-
0B
05
1:
0C
14
0,
0%
1;
#600000
0"
0-
#620000
1"
1-
1<
15
0:
1A
0;
#640000
0"
0-
#660000
1"
1-
1B
0<
1C
04
0A
1,
1%
#680000
0"
0-
#700000
1"
1-
0B
05
1:
0C
14
0,
0%
1;
#720000
0"
0-
#740000
1"
1-
1<
15
0:
1A
0;
#760000
0"
0-
#780000
1"
1-
1B
0<
1C
04
0A
1,
1%
#800000
0"
0-
#820000
1"
1-
0B
05
1:
0C
14
0,
0%
1;
#840000
0"
0-
#860000
1"
1-
1<
15
0:
1A
0;
#880000
0"
0-
#900000
1"
1-
1B
0<
1C
04
0A
1,
1%
#920000
0"
0-
#940000
1"
1-
0B
05
1:
0C
14
0,
0%
1;
#960000
0"
0-
#980000
1"
1-
1<
15
0:
1A
0;
