16_Others/02_Digital Systems Laboratory/Guides/Guide_5/parte1/simulation/qsim/CmpN_Demo.msim.vcd
$comment
	File created using the following command:
		vcd file CmpN_Demo.msim.vcd -direction
$end
$date
	Tue Mar 21 17:18:40 2017
$end
$version
	ModelSim Version 10.4b
$end
$timescale
	1ps
$end

$scope module CmpN_vlg_vec_tst $end
$var reg 8 ! input0 [7:0] $end
$var reg 8 " input1 [7:0] $end
$var wire 1 # equal $end
$var wire 1 $ ltSigned $end
$var wire 1 % ltUnssigned $end
$var wire 1 & notEqual $end

$scope module i1 $end
$var wire 1 ' gnd $end
$var wire 1 ( vcc $end
$var wire 1 ) unknown $end
$var tri1 1 * devclrn $end
$var tri1 1 + devpor $end
$var tri1 1 , devoe $end
$var wire 1 - equal~output_o $end
$var wire 1 . notEqual~output_o $end
$var wire 1 / ltSigned~output_o $end
$var wire 1 0 ltUnssigned~output_o $end
$var wire 1 1 input0[0]~input_o $end
$var wire 1 2 input0[1]~input_o $end
$var wire 1 3 input1[1]~input_o $end
$var wire 1 4 input1[0]~input_o $end
$var wire 1 5 Equal0~0_combout $end
$var wire 1 6 input0[2]~input_o $end
$var wire 1 7 input0[3]~input_o $end
$var wire 1 8 input1[3]~input_o $end
$var wire 1 9 input1[2]~input_o $end
$var wire 1 : Equal0~1_combout $end
$var wire 1 ; input0[4]~input_o $end
$var wire 1 < input0[5]~input_o $end
$var wire 1 = input1[5]~input_o $end
$var wire 1 > input1[4]~input_o $end
$var wire 1 ? Equal0~2_combout $end
$var wire 1 @ input0[6]~input_o $end
$var wire 1 A input0[7]~input_o $end
$var wire 1 B input1[7]~input_o $end
$var wire 1 C input1[6]~input_o $end
$var wire 1 D Equal0~3_combout $end
$var wire 1 E Equal0~4_combout $end
$var wire 1 F LessThan0~1_cout $end
$var wire 1 G LessThan0~3_cout $end
$var wire 1 H LessThan0~5_cout $end
$var wire 1 I LessThan0~7_cout $end
$var wire 1 J LessThan0~9_cout $end
$var wire 1 K LessThan0~11_cout $end
$var wire 1 L LessThan0~13_cout $end
$var wire 1 M LessThan0~14_combout $end
$upscope $end
$upscope $end
$enddefinitions $end
#0
$dumpvars
b0 !
b0 "
1#
0$
0%
0&
0'
1(
x)
1*
1+
1,
1-
0.
0/
00
01
02
03
04
15
06
07
08
09
1:
0;
0<
0=
0>
1?
0@
0A
0B
0C
1D
1E
0F
1G
0H
1I
0J
1K
0L
0M
$end
#40000
b10000000 !
b11000000 !
b11100000 !
b11110000 !
b11111000 !
b11111100 !
b11111110 !
12
16
17
1;
1<
1@
1A
05
0:
0?
0D
1M
1/
10
1%
1$
0E
1.
0-
0#
1&
#80000
b11111111 !
b10000000 "
b11000000 "
b11100000 "
b11110000 "
b11111000 "
b11111100 "
b11111110 "
b11111111 "
b1111111 !
b111111 !
b11111 !
b1111 !
b111 !
b11 !
b1 !
14
13
19
18
1>
1=
1C
1B
11
02
06
07
0;
0<
0@
0A
0G
1H
0I
1J
0K
1L
0M
0/
00
0%
0$
#120000
b1000001 !
b1100001 !
b1110001 !
b1111001 !
b1111101 !
b1111111 !
12
16
17
1;
1<
1@
1G
15
1:
1?
0H
1I
0J
1K
0L
#160000
b1111110 !
b1111111 "
b111111 "
b11111 "
b1111 "
b111 "
b11 "
b1 "
b0 "
b111110 !
b11110 !
b1110 !
b110 !
b10 !
b0 !
04
03
09
08
0>
0=
0C
0B
01
02
06
07
0;
0<
0@
1D
1E
0.
1-
1#
0&
#200000
b10000000 !
b10000001 !
b11000001 !
b11100001 !
b11110001 !
b11111001 !
b11111101 !
b11111111 !
11
12
16
17
1;
1<
1@
1A
05
0:
0?
0D
1M
1/
10
1%
1$
0E
1.
0-
0#
1&
#240000
b10000000 "
b11000000 "
b11100000 "
b11110000 "
b11111000 "
b11111100 "
b11111110 "
b11111111 "
b1111111 !
b1111110 !
b111110 !
b11110 !
b1110 !
b110 !
b10 !
b0 !
01
02
06
07
0;
0<
0@
0A
14
13
19
18
1>
1=
1C
1B
1F
0G
1H
0I
1J
0K
1L
0M
0/
00
0%
0$
#280000
b10000000 !
b10000001 !
b11000001 !
b11100001 !
b11110001 !
b11111001 !
b11111101 !
b11111111 !
11
12
16
17
1;
1<
1@
1A
0F
15
1:
1?
1D
1M
1/
10
1G
1%
1$
1E
0.
1-
0H
1#
0&
1I
0J
1K
0L
0M
0/
00
0%
0$
#320000
b1111111 "
b111111 "
b11111 "
b1111 "
b111 "
b11 "
b1 "
b0 "
b1111111 !
b1111110 !
b111110 !
b11110 !
b1110 !
b110 !
b10 !
b0 !
01
02
06
07
0;
0<
0@
0A
04
03
09
08
0>
0=
0C
0B
#360000
b10000000 !
b10000001 !
b11000001 !
b11100001 !
b11110001 !
b11111001 !
b11111101 !
b11111111 !
11
12
16
17
1;
1<
1@
1A
05
0:
0?
0D
1M
1/
10
1%
1$
0E
1.
0-
0#
1&
#400000
b10000000 "
b11000000 "
b11100000 "
b11110000 "
b11111000 "
b11111100 "
b11111110 "
b11111111 "
b1111111 !
b1111110 !
b111110 !
b11110 !
b1110 !
b110 !
b10 !
b0 !
01
02
06
07
0;
0<
0@
0A
14
13
19
18
1>
1=
1C
1B
1F
0G
1H
0I
1J
0K
1L
0M
0/
00
0%
0$
#440000
b10000000 !
b10000001 !
b11000001 !
b11100001 !
b11110001 !
b11111001 !
b11111101 !
b11111111 !
11
12
16
17
1;
1<
1@
1A
0F
15
1:
1?
1D
1M
1/
10
1G
1%
1$
1E
0.
1-
0H
1#
0&
1I
0J
1K
0L
0M
0/
00
0%
0$
#480000
b1111111 "
b111111 "
b11111 "
b1111 "
b111 "
b11 "
b1 "
b0 "
b1111111 !
b1111110 !
b111110 !
b11110 !
b1110 !
b110 !
b10 !
b0 !
01
02
06
07
0;
0<
0@
0A
04
03
09
08
0>
0=
0C
0B
#520000
b10000000 !
b10000001 !
b11000001 !
b11100001 !
b11110001 !
b11111001 !
b11111101 !
b11111111 !
11
12
16
17
1;
1<
1@
1A
05
0:
0?
0D
1M
1/
10
1%
1$
0E
1.
0-
0#
1&
#560000
b10000000 "
b11000000 "
b11100000 "
b11110000 "
b11111000 "
b11111100 "
b11111110 "
b11111111 "
b1111111 !
b1111110 !
b111110 !
b11110 !
b1110 !
b110 !
b10 !
b0 !
01
02
06
07
0;
0<
0@
0A
14
13
19
18
1>
1=
1C
1B
1F
0G
1H
0I
1J
0K
1L
0M
0/
00
0%
0$
#600000
b10000000 !
b10000001 !
b11000001 !
b11100001 !
b11110001 !
b11111001 !
b11111101 !
b11111111 !
11
12
16
17
1;
1<
1@
1A
0F
15
1:
1?
1D
1M
1/
10
1G
1%
1$
1E
0.
1-
0H
1#
0&
1I
0J
1K
0L
0M
0/
00
0%
0$
#640000
b1111111 "
b111111 "
b11111 "
b1111 "
b111 "
b11 "
b1 "
b0 "
b1111111 !
b1111110 !
b111110 !
b11110 !
b1110 !
b110 !
b10 !
b0 !
01
02
06
07
0;
0<
0@
0A
04
03
09
08
0>
0=
0C
0B
#680000
b10000000 !
b10000001 !
b11000001 !
b11100001 !
b11110001 !
b11111001 !
b11111101 !
b11111111 !
11
12
16
17
1;
1<
1@
1A
05
0:
0?
0D
1M
1/
10
1%
1$
0E
1.
0-
0#
1&
#720000
b10000000 "
b11000000 "
b11100000 "
b11110000 "
b11111000 "
b11111100 "
b11111110 "
b11111111 "
b1111111 !
b1111110 !
b111110 !
b11110 !
b1110 !
b110 !
b10 !
b0 !
01
02
06
07
0;
0<
0@
0A
14
13
19
18
1>
1=
1C
1B
1F
0G
1H
0I
1J
0K
1L
0M
0/
00
0%
0$
#760000
b10000000 !
b10000001 !
b11000001 !
b11100001 !
b11110001 !
b11111001 !
b11111101 !
b11111111 !
11
12
16
17
1;
1<
1@
1A
0F
15
1:
1?
1D
1M
1/
10
1G
1%
1$
1E
0.
1-
0H
1#
0&
1I
0J
1K
0L
0M
0/
00
0%
0$
#800000
b1111111 "
b111111 "
b11111 "
b1111 "
b111 "
b11 "
b1 "
b0 "
b1111111 !
b1111110 !
b111110 !
b11110 !
b1110 !
b110 !
b10 !
b0 !
01
02
06
07
0;
0<
0@
0A
04
03
09
08
0>
0=
0C
0B
#840000
b10000000 !
b10000001 !
b11000001 !
b11100001 !
b11110001 !
b11111001 !
b11111101 !
b11111111 !
11
12
16
17
1;
1<
1@
1A
05
0:
0?
0D
1M
1/
10
1%
1$
0E
1.
0-
0#
1&
#880000
b10000000 "
b11000000 "
b11100000 "
b11110000 "
b11111000 "
b11111100 "
b11111110 "
b11111111 "
b1111111 !
b1111110 !
b111110 !
b11110 !
b1110 !
b110 !
b10 !
b0 !
01
02
06
07
0;
0<
0@
0A
14
13
19
18
1>
1=
1C
1B
1F
0G
1H
0I
1J
0K
1L
0M
0/
00
0%
0$
#920000
b10000000 !
b10000001 !
b11000001 !
b11100001 !
b11110001 !
b11111001 !
b11111101 !
b11111111 !
11
12
16
17
1;
1<
1@
1A
0F
15
1:
1?
1D
1M
1/
10
1G
1%
1$
1E
0.
1-
0H
1#
0&
1I
0J
1K
0L
0M
0/
00
0%
0$
#960000
b1111111 "
b111111 "
b11111 "
b1111 "
b111 "
b11 "
b1 "
b0 "
b1111111 !
b1111110 !
b111110 !
b11110 !
b1110 !
b110 !
b10 !
b0 !
01
02
06
07
0;
0<
0@
0A
04
03
09
08
0>
0=
0C
0B
