16_Others/02_Digital Systems Laboratory/Guides/Guide_8/parte3/simulation/qsim/maquina.msim.vcd
$comment
	File created using the following command:
		vcd file maquina.msim.vcd -direction
$end
$date
	Tue May 02 12:12:31 2017
$end
$version
	ModelSim Version 10.4b
$end
$timescale
	1ps
$end

$scope module maquina_vlg_vec_tst $end
$var reg 1 ! C $end
$var reg 1 " clock $end
$var reg 1 # reset $end
$var reg 1 $ V $end
$var wire 1 % Abrir $end

$scope module i1 $end
$var wire 1 & gnd $end
$var wire 1 ' vcc $end
$var wire 1 ( unknown $end
$var tri1 1 ) devclrn $end
$var tri1 1 * devpor $end
$var tri1 1 + devoe $end
$var wire 1 , Abrir~output_o $end
$var wire 1 - clock~input_o $end
$var wire 1 . clock~inputclkctrl_outclk $end
$var wire 1 / reset~input_o $end
$var wire 1 0 C~input_o $end
$var wire 1 1 V~input_o $end
$var wire 1 2 reg_fstate.E3~0_combout $end
$var wire 1 3 reg_fstate.E3~1_combout $end
$var wire 1 4 reg_fstate.E0~0_combout $end
$var wire 1 5 reg_fstate.E0~1_combout $end
$var wire 1 6 fstate.E0~q $end
$var wire 1 7 reg_fstate.E1~0_combout $end
$var wire 1 8 fstate.E1~q $end
$var wire 1 9 reg_fstate.E2~0_combout $end
$var wire 1 : fstate.E2~q $end
$var wire 1 ; reg_fstate.E3~2_combout $end
$var wire 1 < reg_fstate.E3~3_combout $end
$var wire 1 = fstate.E3~q $end
$var wire 1 > reg_fstate.E4~0_combout $end
$var wire 1 ? reg_fstate.E4~1_combout $end
$var wire 1 @ fstate.E4~q $end
$var wire 1 A reg_fstate.E5~0_combout $end
$var wire 1 B reg_fstate.E5~1_combout $end
$var wire 1 C fstate.E5~q $end
$var wire 1 D Abrir~0_combout $end
$upscope $end
$upscope $end
$enddefinitions $end
#0
$dumpvars
0!
0"
0#
0$
0%
0&
1'
x(
1)
1*
1+
0,
0-
0.
0/
00
01
02
13
14
05
06
07
08
09
0:
0;
0<
0=
0>
0?
0@
0A
0B
0C
0D
$end
#20000
1#
1/
03
#40000
1"
1-
1.
#50000
0#
0/
13
#80000
0"
0-
0.
#110000
1$
11
04
03
12
15
17
#120000
1"
1-
1.
18
16
19
07
#130000
0$
01
13
02
09
17
#160000
0"
0-
0.
#190000
1$
11
03
12
19
07
#200000
1"
1-
1.
1:
08
1<
09
#210000
0$
01
13
02
19
0<
#240000
0"
0-
0.
#270000
1$
11
03
12
09
1<
#280000
1"
1-
1.
1=
0:
1>
0<
1?
#300000
0$
01
0>
1;
13
02
0?
1<
#320000
0"
0-
0.
#350000
1$
11
1>
0;
03
12
1?
0<
#360000
1"
1-
1.
1@
0=
1A
0>
1B
0?
#370000
0$
01
0A
1>
13
02
0B
1?
#390000
1$
11
1A
0>
03
12
1B
0?
#400000
0"
0-
0.
#440000
1"
1-
1.
1C
0@
0A
1D
05
0B
1,
1%
#450000
0$
01
13
02
#480000
0"
0-
0.
#520000
1"
1-
1.
0C
06
14
0D
15
0,
0%
05
#560000
0"
0-
0.
#590000
1!
10
1A
1;
04
03
1<
15
#600000
1"
1-
1.
1=
16
0;
1B
0<
#610000
0!
00
0A
1;
13
0B
1<
#640000
0"
0-
0.
#660000
1!
10
1A
0;
03
1B
0<
#680000
1"
1-
1.
1C
0=
1D
05
0B
1,
1%
#700000
0!
00
0A
13
#720000
0"
0-
0.
#760000
1"
1-
1.
0C
06
14
0D
15
0,
0%
05
#800000
0"
0-
0.
#830000
1!
10
1A
1;
04
03
1<
15
#840000
1"
1-
1.
1=
16
0;
1B
0<
#860000
0!
00
0A
1;
13
0B
1<
#880000
0"
0-
0.
#910000
1$
11
1>
0;
03
12
1?
0<
#920000
1"
1-
1.
1@
0=
1A
0>
1B
0?
#950000
0$
01
0A
1>
13
02
0B
1?
#960000
0"
0-
0.
#980000
1$
11
1A
0>
03
12
1B
0?
#1000000
1"
1-
1.
1C
0@
0A
1D
05
0B
1,
1%
#1020000
0$
01
13
02
#1040000
0"
0-
0.
#1080000
1"
1-
1.
0C
06
14
0D
15
0,
0%
05
#1120000
0"
0-
0.
#1160000
1"
1-
1.
