16_Others/2_Digital Systems Laboratory/Guides/Guide_4/Pare3/simulation/qsim/Counter_Demo.msim.vcd
$comment
	File created using the following command:
		vcd file Counter_Demo.msim.vcd -direction
$end
$date
	Thu May 11 19:32:27 2017
$end
$version
	ModelSim Version 10.4b
$end
$timescale
	1ps
$end

$scope module CounterUpDown4_vlg_vec_tst $end
$var reg 1 ! clk $end
$var reg 1 " reset $end
$var reg 1 # upDown $end
$var wire 1 $ count [3] $end
$var wire 1 % count [2] $end
$var wire 1 & count [1] $end
$var wire 1 ' count [0] $end

$scope module i1 $end
$var wire 1 ( gnd $end
$var wire 1 ) vcc $end
$var wire 1 * unknown $end
$var tri1 1 + devclrn $end
$var tri1 1 , devpor $end
$var tri1 1 - devoe $end
$var wire 1 . count[0]~output_o $end
$var wire 1 / count[1]~output_o $end
$var wire 1 0 count[2]~output_o $end
$var wire 1 1 count[3]~output_o $end
$var wire 1 2 clk~input_o $end
$var wire 1 3 reset~input_o $end
$var wire 1 4 s_count[0]~3_combout $end
$var wire 1 5 upDown~input_o $end
$var wire 1 6 s_count[1]~5_cout $end
$var wire 1 7 s_count[1]~6_combout $end
$var wire 1 8 s_count[1]~7 $end
$var wire 1 9 s_count[2]~8_combout $end
$var wire 1 : s_count[2]~9 $end
$var wire 1 ; s_count[3]~10_combout $end
$var wire 1 < s_count [3] $end
$var wire 1 = s_count [2] $end
$var wire 1 > s_count [1] $end
$var wire 1 ? s_count [0] $end
$upscope $end
$upscope $end
$enddefinitions $end
#0
$dumpvars
0!
x"
x#
0'
0&
0%
0$
0(
1)
x*
1+
1,
1-
0.
0/
00
01
02
x3
x4
x5
06
x7
18
x9
0:
x;
0?
0>
0=
0<
$end
#20000
1!
12
x?
x.
x6
x'
x8
x:
#40000
0!
02
#60000
1!
12
#80000
0!
02
#100000
1!
12
#120000
0!
02
#140000
1!
12
#160000
0!
02
#180000
1!
12
#200000
0!
02
#220000
1!
12
#240000
0!
02
#260000
1!
12
#280000
0!
02
#300000
1!
12
#320000
0!
02
#340000
1!
12
#360000
0!
02
#380000
1!
12
#400000
0!
02
#420000
1!
12
#440000
0!
02
#460000
1!
12
#480000
0!
02
#500000
1!
12
#520000
0!
02
#540000
1!
12
#560000
0!
02
#580000
1!
12
#600000
0!
02
#620000
1!
12
#640000
0!
02
#660000
1!
12
#680000
0!
02
#700000
1!
12
#720000
0!
02
#740000
1!
12
#760000
0!
02
#780000
1!
12
#800000
0!
02
#820000
1!
12
#840000
0!
02
#860000
1!
12
#880000
0!
02
#900000
1!
12
#920000
0!
02
#940000
1!
12
#960000
0!
02
#980000
1!
12
