16_Others/2_Digital Systems Laboratory/Guides/Guide_3/parte 1/simulation/qsim/AdderDemo.msim.vcd
$comment
	File created using the following command:
		vcd file AdderDemo.msim.vcd -direction
$end
$date
	Tue Mar 07 17:39:20 2017
$end
$version
	ModelSim Version 10.4b
$end
$timescale
	1ps
$end

$scope module Adder4_vlg_vec_tst $end
$var reg 4 ! a [3:0] $end
$var reg 4 " b [3:0] $end
$var reg 1 # cin $end
$var wire 1 $ cout $end
$var wire 1 % s [3] $end
$var wire 1 & s [2] $end
$var wire 1 ' s [1] $end
$var wire 1 ( s [0] $end

$scope module i1 $end
$var wire 1 ) gnd $end
$var wire 1 * vcc $end
$var wire 1 + unknown $end
$var tri1 1 , devclrn $end
$var tri1 1 - devpor $end
$var tri1 1 . devoe $end
$var wire 1 / s[0]~output_o $end
$var wire 1 0 s[1]~output_o $end
$var wire 1 1 s[2]~output_o $end
$var wire 1 2 s[3]~output_o $end
$var wire 1 3 cout~output_o $end
$var wire 1 4 a[0]~input_o $end
$var wire 1 5 b[0]~input_o $end
$var wire 1 6 cin~input_o $end
$var wire 1 7 bit0|s~0_combout $end
$var wire 1 8 a[1]~input_o $end
$var wire 1 9 b[1]~input_o $end
$var wire 1 : bit1|s~0_combout $end
$var wire 1 ; a[2]~input_o $end
$var wire 1 < b[2]~input_o $end
$var wire 1 = bit2|s~0_combout $end
$var wire 1 > a[3]~input_o $end
$var wire 1 ? b[3]~input_o $end
$var wire 1 @ bit3|s~0_combout $end
$upscope $end
$upscope $end
$enddefinitions $end
#0
$dumpvars
b0 !
b0 "
0#
0$
0(
0'
0&
0%
0)
1*
x+
1,
1-
1.
0/
00
01
02
03
04
05
06
07
08
09
0:
0;
0<
0=
0>
0?
0@
$end
#50000
b1 !
b11 !
b111 !
b1111 !
b1 "
b11 "
b111 "
b1111 "
1#
15
19
1<
1?
14
18
1;
1>
16
17
1:
1=
1@
12
11
10
1/
1(
1'
1&
1%
#150000
b111 "
0#
0?
06
0=
0:
07
0/
00
01
0&
0'
0(
#200000
b1110 !
b1100 !
b1000 !
b0 !
b110 "
b100 "
b0 "
b1000 "
1#
05
09
0<
1?
04
08
0;
0>
16
17
1:
1=
0@
02
11
10
1/
1(
1'
1&
0%
#250000
b0 "
0#
0?
06
0=
0:
07
0/
00
01
0&
0'
0(
#300000
b1 !
b11 !
b111 !
b1111 !
b1 "
b11 "
b111 "
15
19
1<
14
18
1;
1>
1@
12
1%
#450000
b1111 "
1#
b1110 !
b1100 !
b1000 !
b0 !
b1110 "
b1100 "
b1000 "
16
04
08
0;
0>
05
09
0<
1?
0@
1=
1:
17
1/
10
11
02
0%
1&
1'
1(
#550000
b1 !
b11 !
b111 !
b1111 !
b1001 "
b1011 "
b1111 "
15
19
1<
14
18
1;
1>
1@
12
1%
#600000
b111 "
0#
b1110 !
b1100 !
b1000 !
b0 !
b110 "
b100 "
b0 "
06
04
08
0;
0>
05
09
0<
0?
0@
0=
0:
07
0/
00
01
02
0%
0&
0'
0(
#650000
b1000 "
1#
1?
16
1=
1:
17
1/
10
11
1&
1'
1(
#750000
b1 !
b11 !
b111 !
b1111 !
b1001 "
b1011 "
b1111 "
15
19
1<
14
18
1;
1>
1@
12
1%
#800000
b111 "
0#
b1110 !
b1100 !
b1000 !
b0 !
b110 "
b100 "
b0 "
06
04
08
0;
0>
05
09
0<
0?
0@
0=
0:
07
0/
00
01
02
0%
0&
0'
0(
#850000
b1 !
b11 !
b111 !
b1111 !
b1 "
b11 "
b111 "
15
19
1<
14
18
1;
1>
1@
12
1%
#900000
b1111 "
1#
b1110 !
b1100 !
b1000 !
b0 !
b1110 "
b1100 "
b1000 "
16
04
08
0;
0>
05
09
0<
1?
0@
1=
1:
17
1/
10
11
02
0%
1&
1'
1(
#950000
b0 "
0#
0?
06
0=
0:
07
0/
00
01
0&
0'
0(
