16_Others/2_Digital Systems Laboratory/Guides/Guide_2/exercicios/parte2/simulation/qsim/Mux2_1Demo.msim.vcd
$comment
	File created using the following command:
		vcd file Mux2_1Demo.msim.vcd -direction
$end
$date
	Tue Feb 21 18:27:10 2017
$end
$version
	ModelSim Version 10.4b
$end
$timescale
	1ps
$end

$scope module Mux2_1_vlg_vec_tst $end
$var reg 1 ! input0 $end
$var reg 1 " input1 $end
$var reg 1 # sel $end
$var wire 1 $ muxOut $end

$scope module i1 $end
$var wire 1 % gnd $end
$var wire 1 & vcc $end
$var wire 1 ' unknown $end
$var tri1 1 ( devclrn $end
$var tri1 1 ) devpor $end
$var tri1 1 * devoe $end
$var wire 1 + muxOut~output_o $end
$var wire 1 , input1~input_o $end
$var wire 1 - input0~input_o $end
$var wire 1 . sel~input_o $end
$var wire 1 / muxOut~0_combout $end
$upscope $end
$upscope $end
$enddefinitions $end
#0
$dumpvars
0!
0"
0#
0$
0%
1&
x'
1(
1)
1*
0+
0,
0-
0.
0/
$end
#10000
1"
1#
1,
1.
1/
1+
1$
#330000
0"
0#
0,
0.
0/
0+
0$
#340000
1!
1-
1/
1+
1$
#430000
1#
1.
0/
0+
0$
#470000
0!
0-
#490000
1"
1!
1,
1-
1/
1+
1$
#530000
0"
0,
0/
0+
0$
#570000
0#
0.
1/
1+
1$
#610000
1"
1,
#670000
1#
1.
#690000
0#
0.
#970000
1#
1.
#990000
0!
0"
0#
0-
0,
0.
0/
0+
0$
