16_Others/2_Digital Systems Laboratory/Guides/Guide_2/exercicios/parte1/simulation/qsim/Dec2_4EnDemo.msim.vcd
$comment
	File created using the following command:
		vcd file Dec2_4EnDemo.msim.vcd -direction
$end
$date
	Tue Feb 21 17:29:07 2017
$end
$version
	ModelSim Version 10.4b
$end
$timescale
	1ps
$end

$scope module Dec2_4En_vlg_vec_tst $end
$var reg 1 ! enable $end
$var reg 2 " inputs [1:0] $end
$var wire 1 # outputs [3] $end
$var wire 1 $ outputs [2] $end
$var wire 1 % outputs [1] $end
$var wire 1 & outputs [0] $end

$scope module i1 $end
$var wire 1 ' gnd $end
$var wire 1 ( vcc $end
$var wire 1 ) unknown $end
$var tri1 1 * devclrn $end
$var tri1 1 + devpor $end
$var tri1 1 , devoe $end
$var wire 1 - outputs[0]~output_o $end
$var wire 1 . outputs[1]~output_o $end
$var wire 1 / outputs[2]~output_o $end
$var wire 1 0 outputs[3]~output_o $end
$var wire 1 1 enable~input_o $end
$var wire 1 2 inputs[1]~input_o $end
$var wire 1 3 inputs[0]~input_o $end
$var wire 1 4 outputs~0_combout $end
$var wire 1 5 outputs~1_combout $end
$var wire 1 6 outputs~2_combout $end
$var wire 1 7 outputs~3_combout $end
$upscope $end
$upscope $end
$enddefinitions $end
#0
$dumpvars
0!
b0 "
0&
0%
0$
0#
0'
1(
x)
1*
1+
1,
0-
0.
0/
00
01
02
03
04
05
06
07
$end
#20000
b10 "
12
#30000
1!
b0 "
11
02
14
1-
1&
#100000
b10 "
12
16
04
0-
1/
1$
0&
#200000
0!
b0 "
01
02
06
0/
0$
#230000
b1 "
b11 "
13
12
#270000
b10 "
b0 "
03
02
#320000
b1 "
13
#340000
b0 "
03
#370000
1!
11
14
1-
1&
#390000
b10 "
b11 "
13
12
17
04
0-
10
1#
0&
#470000
b1 "
b0 "
03
02
07
14
1-
00
0#
1&
#550000
b10 "
b11 "
13
12
17
04
0-
10
1#
0&
#630000
b1 "
b0 "
03
02
07
14
1-
00
0#
1&
#690000
0!
01
04
0-
0&
#710000
b10 "
b11 "
13
12
#750000
b1 "
b0 "
03
02
#790000
1!
11
14
1-
1&
#880000
0!
01
04
0-
0&
#950000
b10 "
b11 "
13
12
#970000
b10 "
03
